
width=30
height=30
566,567,568,569,1,1,1,598,599,600,601,602,1,1,1,1,1,1,1,1,1,1,1,1,1,1,1,1,1,1,
598,599,600,601,602,1,1,1,1,1,1,1,1,1,1,1,1,1,1,1,1,1,1,1,1,1,1,1,1,1,
1,1,1,1,1,1,1,1,1,1,1,1,566,567,568,569,1,1,1,1,1,1,1,566,567,568,569,1,1,1,
1,1,1,1,1,1,1,1,1,1,1,1,598,599,600,601,602,1,1,1,1,1,1,598,599,600,601,602,1,1,
568,569,1,1,1,1,1,1,1,442,443,444,1,1,1,1,1,1,1,1,1,1,1,1,1,1,1,1,1,1,
600,601,602,1,1,1,1,1,1,474,475,476,1,1,1,1,566,567,568,569,1,1,1,1,1,1,1,1,1,1,
1,1,1,1,1,1,1,502,502,506,507,508,502,1,1,1,598,599,600,601,602,1,1,1,1,1,1,1,1,1,
1,502,1,1,1,1,1,1,1,1,1,1,1,1,1,1,1,1,1,1,1,1,1,1,1,1,1,1,1,1,
1,1,1,1,502,502,1,1,1,1,1,1,1,1,502,534,1,1,1,1,1,1,1,1,1,1,472,473,1,1,
1,1,1,1,1,1,1,1,1,1,1,1,1,1,1,1,502,1,1,502,1,1,1,1,1,1,504,505,1,502,
1,1,536,502,1,1,1,1,1,1,1,1,1,1,1,1,1,1,1,1,1,1,1,1,1,1,1,1,1,1,
1,1,1,1,1,1,1,1,1,1,1,1,1,1,1,1,1,502,1,1,1,1,1,1,1,1,1,1,502,1,
1,1,1,1,1,1,502,502,1,1,1,1,1,1,1,1,1,1,1,1,1,1,1,1,1,1,1,1,1,1,
1,1,502,502,1,1,1,1,1,1,1,502,534,1,1,1,1,1,1,502,1,1,1,1,1,1,1,1,1,502,
1,1,1,1,1,1,1,1,1,1,1,1,1,1,1,1,1,1,1,1,1,472,473,1,1,1,1,1,1,1,
1,1,1,1,1,1,1,1,1,1,1,1,1,1,1,503,1,1,1,1,1,504,505,502,1,1,1,1,502,535,
502,535,502,502,534,502,502,1,1,1,1,1,1,1,1,1,1,1,1,1,1,1,1,1,1,1,1,1,1,1,
1,1,1,1,1,1,1,1,502,502,1,1,1,1,1,1,1,1,1,1,1,1,1,1,1,1,1,502,1,1,
1,1,1,1,1,1,1,1,1,1,1,1,1,1,1,1,1,1,1,1,1,1,1,1,1,502,502,1,1,1,
1,1,1,502,1,1,1,1,1,1,534,502,1,1,1,1,1,1,1,1,1,1,1,1,1,1,1,1,1,1,
1,1,1,1,1,502,534,502,1,1,1,1,1,472,473,1,1,1,1,1,1,1,1,1,1,1,1,1,1,534,
1,1,1,1,1,1,1,1,1,1,1,1,1,504,505,502,1,1,1,1,1,1,1,1,502,502,502,502,1,1,
1,1,1,1,1,1,1,1,1,1,1,1,1,1,1,1,1,1,1,1,1,1,1,1,1,1,1,1,1,1,
1,1,1,1,1,1,1,1,1,1,1,1,1,1,1,1,1,1,1,1,1,1,1,1,1,1,1,1,1,1,
1,1,1,1,1,1,1,1,1,1,1,1,1,1,1,1,1,1,1,1,1,1,1,1,1,1,1,1,1,1,
1,1,1,1,1,1,1,1,1,1,1,1,1,1,1,1,1,1,1,1,1,1,1,1,1,1,1,1,1,1,
375,375,375,375,375,375,375,375,375,375,375,375,375,375,375,375,375,375,375,375,375,375,375,375,375,375,375,375,375,375,
407,407,407,406,407,407,406,407,407,406,407,407,407,407,407,407,407,407,406,407,407,407,407,407,406,407,407,407,407,407,
407,406,407,407,407,406,407,407,407,407,406,407,406,407,407,407,407,407,407,407,407,406,407,407,407,407,406,407,407,407,
407,407,407,406,407,407,407,407,406,406,407,407,407,407,407,407,406,407,407,407,407,407,407,407,406,407,407,407,407,407
0,0,0,0,0,0,0,0,0,0,0,0,0,0,0,0,0,0,0,0,0,0,0,0,0,0,0,0,0,0,
0,0,0,0,0,0,0,0,0,0,0,0,0,0,0,0,0,0,0,0,0,0,0,0,0,0,0,0,0,0,
0,0,0,0,0,0,0,0,0,0,0,0,0,0,0,0,0,0,0,0,0,0,0,0,0,0,0,0,0,0,
0,0,0,0,0,0,0,0,0,0,0,0,0,0,0,0,0,0,0,0,0,0,0,0,0,0,0,0,0,0,
0,0,0,0,0,0,0,0,0,0,0,0,0,0,0,0,0,0,0,0,0,0,0,0,0,0,0,0,0,0,
0,0,0,0,0,0,0,0,0,0,0,0,0,0,0,0,0,0,0,0,0,0,0,0,0,0,0,0,0,0,
0,0,0,0,0,0,0,0,0,0,0,0,0,0,0,0,0,0,0,0,0,0,0,0,0,0,0,0,0,0,
0,0,0,0,0,0,0,151,152,153,154,155,156,0,0,0,0,0,0,0,0,0,0,0,0,0,0,0,0,0,
0,248,0,0,0,0,0,0,184,185,186,187,0,0,0,0,0,0,0,0,0,0,0,0,0,0,0,0,0,0,
0,0,0,0,151,156,0,0,216,217,218,219,0,0,152,155,0,0,0,0,278,313,313,313,313,285,0,0,0,0,
0,0,0,0,0,0,0,0,0,249,250,0,0,0,184,187,248,0,0,23,28,345,345,345,345,23,24,28,0,248,
0,0,151,156,0,0,0,0,0,0,0,0,0,0,216,219,0,0,0,0,0,0,0,0,0,0,0,0,0,0,
0,0,0,0,0,0,0,0,0,0,0,0,0,0,0,0,0,248,0,0,0,0,0,0,0,0,0,0,248,0,
0,0,0,0,0,0,151,156,0,0,0,0,0,0,0,0,0,0,0,0,0,0,0,0,0,0,0,0,0,0,
0,0,151,156,0,0,0,0,0,0,0,151,156,0,0,0,0,0,0,248,0,0,0,0,0,0,0,0,0,248,
0,0,0,0,0,0,0,0,0,0,0,0,0,0,0,0,0,0,0,0,0,0,0,0,0,0,0,0,0,0,
0,0,0,0,0,0,0,0,0,0,0,0,0,0,24,27,0,0,0,0,0,23,27,28,0,0,0,0,23,24,
24,25,24,25,26,27,28,0,0,0,0,0,0,0,121,122,0,0,0,0,0,0,0,0,0,0,0,0,0,0,
56,57,0,0,0,0,0,0,151,156,0,0,0,0,0,0,0,0,0,0,0,0,0,0,0,0,0,248,0,0,
88,89,0,0,0,0,0,0,0,0,0,0,0,0,0,0,0,0,0,0,0,0,0,0,0,23,28,0,0,0,
0,0,0,248,0,0,0,0,0,0,151,156,0,0,0,0,0,0,0,0,0,0,0,0,0,0,0,0,0,0,
0,0,0,0,0,23,24,28,0,0,0,0,0,0,0,0,278,313,313,313,313,313,313,285,0,0,0,0,153,154,
0,0,0,0,0,0,0,0,0,0,0,0,0,24,24,25,26,345,345,345,345,345,345,23,24,24,25,26,27,28,
0,0,0,0,0,0,0,0,0,0,0,0,0,88,89,90,91,0,0,0,0,0,0,0,88,89,89,90,91,0,
0,0,0,0,0,0,0,0,0,0,0,0,0,0,0,0,0,0,0,0,0,0,0,0,0,0,0,0,0,0,
0,0,0,0,0,0,0,0,0,0,0,0,0,0,0,0,0,0,0,0,0,0,0,0,0,0,0,0,0,0,
0,0,0,0,0,0,0,0,0,0,0,0,0,0,0,0,0,0,0,0,0,0,0,0,0,0,0,0,0,0,
0,0,0,0,0,0,0,0,0,0,0,0,0,0,0,0,0,0,0,0,0,0,0,0,0,0,0,0,0,0,
0,0,0,0,0,0,0,0,0,0,0,0,0,0,0,0,0,0,0,0,0,0,0,0,0,0,0,0,0,0,
0,0,0,0,0,0,0,0,0,0,0,0,0,0,0,0,0,0,0,0,0,0,0,0,0,0,0,0,0,0

