width=30
height=30
1,1,1,1,1,1,1,1,1,1,1,598,599,600,601,602,1,1,1,1,1,1,1,1,1,1,1,1,1,1,
566,567,568,569,570,1,1,1,1,1,1,1,1,1,1,1,1,1,1,1,1,1,1,566,567,568,569,570,1,1,
598,599,600,601,602,570,1,1,1,1,1,1,566,567,568,569,570,1,1,1,1,1,1,598,599,600,601,602,1,1,
1,1,1,1,1,1,1,1,1,1,1,1,598,599,600,601,602,1,1,1,1,1,1,1,1,1,1,1,1,1,
1,1,1,1,1,1,1,1,1,292,293,294,1,1,1,1,1,1,1,1,1,1,1,1,1,1,1,1,1,1,
1,1,1,1,1,1,1,1,1,324,325,326,1,1,1,1,1,1,1,1,1,1,1,1,1,1,1,1,1,1,
1,1,1,1,1,1,1,39,39,356,357,358,39,1,1,566,567,568,569,570,1,1,1,1,1,1,1,1,1,1,
568,569,570,1,1,1,150,151,152,153,154,155,156,157,1,598,599,600,601,602,1,1,1,1,1,1,1,1,1,1,
600,601,602,129,130,131,132,1,184,185,186,187,188,189,1,1,1,1,1,1,1,1,1,1,1,1,166,167,1,1,
1,1,1,1,162,163,164,1,216,217,218,219,1,1,268,269,270,1,1,46,47,48,49,50,51,52,198,199,1,1,
1,129,130,131,132,1,1,1,1,249,250,251,252,253,300,301,248,1,1,78,79,80,81,82,83,84,27,28,29,1,
182,161,162,163,164,1,1,1,1,1,1,1,1,1,249,250,1,1,1,1,1,1,1,1,1,1,1,1,1,1,
214,1,1,1,1,1,130,131,1,1,1,1,1,1,1,1,1,120,1,1,1,1,1,1,569,570,1,1,1,1,
1,1,130,131,132,161,162,163,164,1,1,130,131,1,1,1,1,1,1,1,1,1,1,1,1,11,12,1,1,1,
1,77,162,163,164,1,1,1,1,1,161,162,163,164,1,1,1,1,1,120,1,1,41,369,41,43,44,41,1,1,
1,109,1,1,1,1,1,1,1,1,1,1,1,1,1,1,1,1,1,1,1,22,23,24,25,26,27,28,77,1,
322,408,322,322,534,322,322,1,1,1,1,1,1,208,209,210,1,1,1,1,1,1,1,56,57,58,59,1,376,1,
385,386,386,387,388,389,390,391,130,131,1,1,1,240,241,242,1,1,1,1,1,1,1,88,89,90,91,1,408,1,
417,418,1,1,1,1,1,161,162,163,164,1,1,1,1,1,1,1,1,1,1,1,1,1,121,122,1,1,376,1,
449,450,1,1,1,1,1,1,1,1,130,131,1,1,1,1,1,1,1,1,1,1,1,1,1,1,1,1,408,1,
1,1,1,1,1,1,1,1,1,1,162,1,232,472,473,1,1,1,1,1,1,1,1,1,1,1,472,473,376,1,
1,1,1,1,1,1,1,1,1,1,1,1,1,504,505,1,278,279,280,281,1,283,284,285,1,1,504,505,408,1,
1,1,1,1,1,1,1,1,1,1,1,1,362,363,364,365,366,311,312,313,314,315,316,23,71,72,73,74,75,76,
1,1,1,1,1,1,1,1,1,1,1,1,1,395,396,397,398,343,344,345,346,347,348,349,103,104,105,106,107,1,
1,1,1,1,1,1,1,1,1,1,1,1,1,1,1,1,1,1,1,1,1,1,1,1,1,1,1,1,1,1,
1,1,1,1,1,1,1,1,1,1,1,1,1,1,1,1,1,1,1,1,1,1,1,1,1,1,1,1,1,1,
421,422,423,424,425,426,427,425,426,427,422,423,424,425,426,427,421,422,423,424,425,426,427,421,422,423,424,425,426,427,
454,451,452,453,454,455,456,457,458,459,453,451,452,453,454,455,456,457,458,459,459,455,451,452,453,454,455,456,457,458,
453,454,455,456,457,458,459,453,454,455,456,457,458,459,452,453,454,455,456,457,458,459,453,454,455,456,457,458,459,459,
458,459,453,454,455,456,457,458,459,453,454,455,456,457,458,459,453,454,455,456,457,458,459,453,454,455,456,457,458,459

