width=45
height=30
566,567,568,569,1,1,1,598,599,600,601,602,1,1,1,1,1,1,1,1,1,1,598,599,600,601,602,1,1,1,1,1,1,1,1,1,1,1,1,1,1,1,1,1,1,
598,599,600,601,602,1,1,1,1,1,1,1,1,1,1,1,1,1,1,1,1,1,1,1,1,1,1,1,1,1,1,1,1,1,1,566,567,568,569,1,1,1,1,1,1,
1,1,1,1,1,1,1,1,1,1,1,1,566,567,568,569,1,1,1,1,1,1,1,566,567,568,569,1,1,1,1,1,1,1,1,598,599,600,601,602,1,1,1,1,1,
1,1,1,1,1,1,1,1,1,1,1,1,598,599,600,601,602,1,1,1,1,1,1,598,599,600,601,602,1,1,1,1,1,1,1,1,1,1,1,1,1,1,1,1,1,
568,569,1,1,1,1,1,1,1,442,443,444,1,1,1,1,1,1,1,1,1,1,1,1,1,1,1,1,1,1,1,1,1,1,1,1,1,1,1,1,1,566,567,568,569,
600,601,602,1,1,1,1,1,1,474,475,476,1,1,1,1,566,567,568,569,1,1,1,1,1,1,1,1,1,1,1,1,1,1,1,1,1,1,1,1,1,598,599,600,601,
1,1,1,1,1,1,1,502,502,506,507,508,502,1,1,1,598,599,600,601,602,1,1,1,1,1,1,1,1,1,1,566,567,568,569,1,1,1,1,1,1,1,1,1,1,
1,502,1,1,1,1,1,151,152,153,154,155,156,1,1,1,1,1,1,1,1,1,1,1,1,1,1,1,1,1,1,598,599,600,601,602,1,1,1,1,1,1,502,536,1,
150,120,157,1,502,502,1,1,184,185,186,187,1,1,502,534,1,1,1,1,1,1,1,1,1,1,472,473,1,1,1,1,1,1,1,1,1,1,502,502,502,150,151,156,157,
1,1,1,22,23,28,29,1,216,217,218,219,1,150,152,155,157,1,1,502,278,313,313,313,314,285,504,505,1,502,1,1,1,1,1,1,1,22,23,24,28,29,1,1,1,
1,1,536,502,1,1,1,1,1,249,250,1,1,1,184,187,248,157,22,23,28,345,346,345,346,23,27,28,29,248,1,1,1,1,1,1,1,1,1,1,1,1,1,1,1,
1,150,151,156,157,1,1,1,1,1,1,1,1,1,216,219,1,502,1,1,1,1,1,1,1,1,1,1,502,1,1,535,1,1,502,534,502,1,1,1,1,1,1,1,1,
1,1,1,1,1,1,502,502,1,1,1,1,1,1,1,1,150,120,157,1,1,1,1,1,1,1,1,150,248,157,150,120,157,22,23,24,28,29,502,534,1,1,1,1,1,
1,1,502,502,1,150,151,156,157,1,1,502,534,1,1,1,1,1,1,502,1,1,1,1,1,1,1,1,1,502,1,1,1,1,1,1,1,150,151,156,157,1,1,1,1,
1,22,23,28,29,1,1,1,1,1,150,151,156,157,1,1,1,1,150,248,157,472,473,1,1,1,1,1,150,248,1,1,1,502,1,1,1,1,1,1,1,442,443,444,1,
1,1,1,1,1,1,1,1,1,1,1,1,1,1,502,503,1,1,1,1,1,504,505,502,1,1,1,1,502,535,502,1,150,120,157,1,1,1,1,1,1,474,475,476,1,
502,535,502,502,534,502,502,1,1,1,1,1,1,22,24,27,29,1,1,1,22,23,24,28,29,1,1,1,23,24,28,29,1,1,1,1,1,1,1,1,502,506,507,508,502,
24,25,26,25,26,27,28,29,502,502,1,1,1,1,56,59,1,1,502,502,1,1,1,1,1,1,1,502,1,1,1,1,1,1,502,534,502,502,1,22,23,24,25,26,27,
56,57,1,1,1,1,1,150,151,156,157,1,1,1,1,1,1,150,151,156,157,1,1,1,1,502,535,248,157,1,1,1,1,150,151,152,155,156,157,1,1,1,1,56,57,
90,89,1,502,1,1,1,1,1,1,534,502,1,1,1,1,1,1,1,1,1,1,1,1,22,23,28,29,1,1,1,1,502,502,1,216,219,1,1,1,502,1,1,88,89,
1,1,150,248,157,502,534,502,1,150,151,156,157,472,473,1,1,1,1,1,1,1,1,1,1,1,1,1,502,534,1,150,151,156,157,1,1,1,1,150,248,157,1,1,1,
1,1,1,1,22,23,24,28,29,1,1,1,1,504,505,502,278,313,314,313,314,313,314,285,502,502,502,150,153,154,29,1,1,1,1,1,1,1,1,1,1,1,1,1,1,
1,1,1,1,1,1,1,1,1,1,1,1,22,24,25,26,27,345,346,345,346,345,346,23,24,25,25,26,27,28,1,1,1,1,1,1,1,1,1,1,1,1,1,1,1,
1,1,1,1,1,1,1,1,1,1,1,1,1,88,89,90,91,1,1,1,1,1,1,1,88,89,90,89,91,1,1,1,1,1,1,1,1,1,1,1,1,1,1,1,1,
1,1,1,1,1,1,1,1,1,1,1,1,1,1,1,1,1,1,1,1,1,1,1,1,1,1,1,1,1,1,1,1,1,1,1,1,1,1,1,1,1,1,1,1,1,
1,1,1,1,1,1,1,1,1,1,1,1,1,1,1,1,1,1,1,1,1,1,1,1,1,1,1,1,1,1,1,1,1,1,1,1,1,1,1,1,1,1,1,1,1,
375,375,375,375,375,375,375,375,375,375,375,375,375,375,375,375,375,375,375,375,375,375,375,375,375,375,375,375,375,375,374,374,375,375,375,375,375,375,375,375,375,375,375,375,375,
407,407,407,406,407,407,406,407,407,406,407,407,407,407,407,407,407,407,406,407,407,407,407,407,406,407,407,407,407,407,406,406,407,407,407,407,407,407,407,407,407,407,407,407,407,
407,406,407,407,407,406,407,407,407,407,406,407,406,407,407,407,407,407,407,407,407,406,407,407,407,407,406,407,407,407,406,406,406,406,406,406,406,406,406,406,406,406,406,406,407,
407,407,407,406,407,407,407,407,406,406,407,407,407,407,407,407,406,407,407,407,407,407,407,407,406,407,407,407,407,407,406,407,407,406,407,406,407,406,407,406,407,406,407,406,407